<?xml version="1.0" encoding="utf-8"?>
<!-- Generator: Adobe Illustrator 15.0.0, SVG Export Plug-In . SVG Version: 6.00 Build 0)  -->
<!DOCTYPE svg PUBLIC "-//W3C//DTD SVG 1.1//EN" "http://www.w3.org/Graphics/SVG/1.1/DTD/svg11.dtd">
<svg version="1.1" xmlns="http://www.w3.org/2000/svg" xmlns:xlink="http://www.w3.org/1999/xlink" x="0px" y="0px"
	 width="231.854px" height="191.085px" viewBox="0 0 231.854 191.085" enable-background="new 0 0 231.854 191.085"
	 xml:space="preserve">
<g id="Layer_2" display="none">
	<rect x="-128.288" y="-169.241" display="inline" fill="#2A5F8B" width="500" height="500"/>
</g>
<g id="Layer_1">
	<path fill="#B8AF03" d="M154.286,0H77.573C34.713,0,0,34.726,0,77.57v3.624c0,42.84,34.713,77.572,77.573,77.572h41.826
		l-3.9,32.318c17.902,0,73.164-38.369,86.281-48.553c18.299-14.191,30.074-36.387,30.074-61.338V77.57
		C231.854,34.726,197.12,0,154.286,0z"/>
</g>
<g id="Layer_3">
	<g>
		<rect y="50.122" fill="none" width="231.854" height="75.637"/>
		<path fill="#FFFFFF" d="M45.695,112.114l-9.02-24.765h-5.494v24.765h-9.512V54.058h16.564c2.405,0,4.619,0.315,6.642,0.943
			c2.022,0.629,3.758,1.627,5.207,2.993c1.448,1.367,2.583,3.089,3.403,5.166c0.82,2.078,1.23,4.565,1.23,7.462
			c0,2.242-0.287,4.223-0.861,5.945c-0.574,1.722-1.299,3.185-2.173,4.387c-0.875,1.204-1.845,2.173-2.911,2.911
			c-1.066,0.738-2.119,1.244-3.157,1.518l10.414,26.732H45.695z M45.039,71.114c0-1.749-0.246-3.198-0.738-4.346
			c-0.492-1.148-1.135-2.05-1.927-2.706c-0.793-0.656-1.681-1.12-2.665-1.394c-0.984-0.273-1.968-0.41-2.952-0.41h-5.576v17.876
			h5.576c2.405,0,4.387-0.751,5.945-2.255C44.26,76.376,45.039,74.121,45.039,71.114z"/>
		<path fill="#FFFFFF" d="M63.734,112.114V54.058h9.84v58.057H63.734z"/>
		<path fill="#FFFFFF" d="M125.234,112.114l0.164-44.608h-0.246l-11.645,44.608h-7.708L94.401,67.506h-0.246l0.164,44.608h-8.938
			V54.058h13.202l11.152,42.477h0.328l10.907-42.477h13.857v58.057H125.234z"/>
		<path fill="#FFFFFF" d="M171.727,112.114l-2.87-12.301h-15.252l-2.952,12.301h-9.84l14.432-58.057h12.546l14.187,58.057H171.727z
			 M161.477,63.324h-0.328l-6.314,28.783h12.792L161.477,63.324z"/>
		<path fill="#FFFFFF" d="M203.873,89.892v22.223h-9.676V89.892l-14.515-35.834h10.66l8.692,25.912l0.246-0.164l8.855-25.748h10.414
			L203.873,89.892z"/>
	</g>
</g>
</svg>
