<?xml version="1.0" encoding="utf-8"?>
<!-- Generator: Adobe Illustrator 16.0.0, SVG Export Plug-In . SVG Version: 6.00 Build 0)  -->
<!DOCTYPE svg PUBLIC "-//W3C//DTD SVG 1.1//EN" "http://www.w3.org/Graphics/SVG/1.1/DTD/svg11.dtd">
<svg version="1.1" id="Layer_1" xmlns="http://www.w3.org/2000/svg" xmlns:xlink="http://www.w3.org/1999/xlink" x="0px" y="0px"
	 width="380px" height="380px" viewBox="0 0 380 380" enable-background="new 0 0 380 380" xml:space="preserve">
<rect fill="#C1781A" width="380" height="380"/>
<path fill="none" d="M458.962,429.81c-0.001-0.01-0.001-0.021-0.002-0.03c0.001,0.013,0.002,0.025,0.002,0.038
	C458.962,429.815,458.962,429.813,458.962,429.81z"/>
<path d="M458.99,430.297c-0.003-0.058-0.012-0.208-0.027-0.487c0,0.003,0,0.005,0,0.008
	C458.976,430.047,458.986,430.231,458.99,430.297z"/>
<path d="M458.96,429.78c0.001,0.01,0.001,0.021,0.002,0.03C458.819,427.261,458.908,428.842,458.96,429.78z"/>
<path opacity="0.1" fill="#010002" d="M380,283.198c-0.95-1.25-1.928-2.49-2.922-3.729c-11.587-17.283-24.604-34.505-37.621-50.74
	c-11.619-17.271-24.596-34.504-37.624-50.741c-11.604-17.272-24.584-34.537-37.629-50.749c-5.585-8.312-11.825-16.649-18.125-24.435
	c-5.371-7.955-11.373-17.603-18.573-24c-6.166-5.478-14.398-8.742-22.149-11.254c-8.19-2.654-18.437-6.062-27.106-4.403
	c-16.537,3.165-32.398,20.375-32.814,37.251c-0.229,9.219,3.242,18.42-0.455,27.175c-3.264,7.729,3.568,17.422,5.414,24.799
	c4.548,18.178,17.587,32.207,28.445,46.955c-4.302-1.612-8.133-4.07-11.784-6.824c-1.849-1.394-3.656-2.839-5.509-4.229
	c-1.779,1.479-3.459,3.07-5.23,4.558c-7.869,6.615-18.309,10.524-27.951,13.726c-7.771,2.58-15.145,5.011-20.7,11.397
	c-6.481,7.45-8.982,18.137-11.276,27.494c-2.473,10.088-4.015,20.38-5.116,30.7c-0.883,8.283-4.28,20.753,3.079,27.093
	c4.295,9.049,13.587,15.674,18.162,24.593c2.287,4.43,6.729,7.748,9.029,12.178c2.154,4.171,6.881,10.912,10.434,13.973
	c4.036,8.504,12.446,14.892,17.279,23.016H380V283.198z"/>
<g id="NQ7PDv.tif">
	<g>
		<path fill-rule="evenodd" clip-rule="evenodd" fill="#FFFFFF" d="M277.658,187.456c-10.85,2.067-21.088,3.433-31.514,1.684
			c-8.483-1.424-15.832-5.036-22.02-11.006c-1.074-1.036-2.122-2.099-3.324-3.29c-7.986,8.481-16.937,15.047-29.157,15.079
			c-12.25,0.031-21.252-6.44-29.289-15.029c-0.489,0.447-0.947,0.806-1.335,1.229c-8.116,8.84-18.323,13.117-30.165,13.738
			c-8.365,0.438-16.598-0.627-25.216-2.419c0.572-0.35,0.771-0.524,1.001-0.604c11.919-4.078,18.691-12.835,22.227-24.504
			c3.487-11.511,3.928-23.364,3.859-35.268c-0.066-11.466,1.341-22.753,6.127-33.22c7.653-16.738,20.615-27.388,38.65-31.531
			c8.754-2.011,17.644-3.125,26.616-1.819c5.879,0.855,11.497,2.954,14.626,8.274c1.767,3.003,3.569,3.857,6.839,4.084
			c5.152,0.357,9.211,3.244,11.837,7.699c5.397,9.158,10.164,18.625,11.502,29.355c0.714,5.728,1.315,11.505,1.409,17.269
			c0.194,11.822,0.464,23.598,3.916,35.045c3.522,11.679,10.226,20.467,22.142,24.574
			C276.644,186.883,276.872,187.042,277.658,187.456z"/>
	</g>
</g>
<g>
	<g>
		<path fill-rule="evenodd" clip-rule="evenodd" fill="#FFFFFF" d="M90,288.53c0.425-3.794,0.868-7.586,1.272-11.382
			c1.751-16.415,4.594-32.569,10.48-48.106c3.977-10.495,11.4-16.765,21.976-20.007c10.083-3.09,19.965-6.838,28.94-12.486
			c3.195-2.011,5.9-4.8,8.878-7.274c3.014,2.261,6.065,4.796,9.354,6.972c11.609,7.682,23.66,8.117,35.864,1.557
			c3.346-1.799,6.439-4.12,9.459-6.446c1.333-1.027,2.194-0.908,3.408-0.062c3.011,2.098,5.902,4.473,9.161,6.089
			c5.157,2.554,10.561,4.615,15.887,6.816c6.27,2.592,12.626,4.979,18.841,7.692c7.748,3.385,11.952,9.93,14.85,17.499
			c6.016,15.715,8.845,32.118,10.5,48.772c0.399,4.027,0.843,8.053,1.07,12.092c0.129,2.294,0.052,4.638-0.279,6.908
			c-0.431,2.952-1.68,5.139-4.905,6.414c-10.308,4.073-20.891,7.146-31.666,9.615c-14.879,3.409-29.932,5.773-45.137,7.088
			c-6.322,0.546-12.677,1.19-19.002,1.074c-7.427-0.137-14.853-0.905-22.252-1.659c-15.757-1.605-31.381-4.182-46.689-8.212
			c-8.84-2.327-17.43-5.619-26.083-8.616c-1.007-0.349-1.969-1.454-2.483-2.449c-0.713-1.383-0.984-2.994-1.443-4.507
			C90,293.45,90,290.99,90,288.53z"/>
		<path fill-rule="evenodd" clip-rule="evenodd" fill="#FFFFFF" d="M238.588,106.502c-0.801,4.977-1.499,9.974-2.449,14.922
			c-0.426,2.219-0.502,4.139,0.69,6.222c1.618,2.825,0.832,5.969,0.185,8.901c-0.895,4.049-1.614,8.122-4.22,11.696
			c-1.31,1.797-1.321,4.517-2.019,6.79c-4.479,14.593-12.61,26.523-25.686,34.736c-10.372,6.516-21.973,5.982-31.844-1.343
			c-12.643-9.384-20.035-22.056-23.377-37.295c-0.357-1.627-1.401-3.091-1.94-4.693c-1.143-3.396-2.302-6.8-3.176-10.271
			c-0.45-1.789-0.52-3.749-0.351-5.594c0.124-1.359,0.956-2.644,1.395-3.987c0.467-1.429,1.271-2.915,1.184-4.331
			c-0.381-6.194-1.28-12.362-1.527-18.558c-0.37-9.296,2.854-17.373,9.067-24.327c5.487-6.141,11.989-10.822,19.562-13.975
			c4.078-1.698,8.477-2.008,12.746-1.28c11.795,2.01,23.312,5.209,33.854,10.945c11.749,6.391,17.327,16.728,17.416,30.061
			c0.004,0.434,0,0.868,0,1.302C238.262,106.449,238.425,106.476,238.588,106.502z"/>
	</g>
	<path fill="#F4F4F4" d="M289.941,290.255c-0.228-4.039-0.671-8.064-1.07-12.092c-1.655-16.654-4.484-33.058-10.5-48.772
		c-2.897-7.569-7.102-14.114-14.85-17.499c-6.215-2.714-12.571-5.101-18.841-7.692c-5.326-2.201-10.729-4.263-15.887-6.816
		c-3.259-1.616-6.15-3.991-9.161-6.089c-1.214-0.846-2.075-0.965-3.408,0.062c-3.02,2.326-6.113,4.647-9.459,6.446
		c-5.516,2.965-11,4.486-16.427,4.57V321.36c5.867,0.009,11.755-0.574,17.615-1.08c15.205-1.314,30.258-3.679,45.137-7.088
		c10.775-2.469,21.358-5.542,31.666-9.615c3.226-1.275,4.475-3.462,4.905-6.414C289.993,294.893,290.07,292.549,289.941,290.255z"/>
	<path fill="#F4F4F4" d="M205.09,189.77c13.075-8.213,21.207-20.144,25.686-34.736c0.697-2.272,0.709-4.992,2.019-6.79
		c2.605-3.574,3.325-7.647,4.22-11.696c0.647-2.933,1.434-6.076-0.185-8.901c-1.192-2.083-1.116-4.003-0.69-6.222
		c0.95-4.948,1.648-9.945,2.449-14.922c-0.163-0.026-0.326-0.053-0.49-0.08c0-0.434,0.004-0.868,0-1.302
		c-0.089-13.333-5.667-23.67-17.416-30.061c-9.493-5.165-19.777-8.27-30.343-10.305v129.538
		C195.324,194.244,200.336,192.756,205.09,189.77z"/>
</g>
<g>
</g>
<g>
</g>
<g>
</g>
<g>
</g>
<g>
</g>
<g>
</g>
</svg>
